%!PS-Adobe-3.0 EPSF-3.0
%%Creator: MATLAB, The MathWorks, Inc. Version 8.2.0.701 (R2013b). Operating System: Darwin 13.1.0 Darwin Kernel Version 13.1.0: Thu Jan 16 19:40:37 PST 2014; root:xnu-2422.90.20~2/RELEASE_X86_64 x86_64.
%%Title: /home/ugrad/13/s1311367/Documents/MATLAB/kadai013.eps
%%CreationDate: 04/22/2014  13:17:27
%%DocumentNeededFonts: Helvetica
%%DocumentProcessColors: Cyan Magenta Yellow Black
%%LanguageLevel: 2
%%Pages: 1
%%BoundingBox:    26   186   586   606
%%EndComments

%%BeginProlog
% MathWorks dictionary
/MathWorks 160 dict begin
% definition operators
/bdef {bind def} bind def
/ldef {load def} bind def
/xdef {exch def} bdef
/xstore {exch store} bdef
% operator abbreviations
/c  /clip ldef
/cc /concat ldef
/cp /closepath ldef
/gr /grestore ldef
/gs /gsave ldef
/mt /moveto ldef
/np /newpath ldef
/cm /currentmatrix ldef
/sm /setmatrix ldef
/rm /rmoveto ldef
/rl /rlineto ldef
/s {show newpath} bdef
/sc {setcmykcolor} bdef
/sr /setrgbcolor ldef
/sg /setgray ldef
/w /setlinewidth ldef
/j /setlinejoin ldef
/cap /setlinecap ldef
/rc {rectclip} bdef
/rf {rectfill} bdef
% page state control
/pgsv () def
/bpage {/pgsv save def} bdef
/epage {pgsv restore} bdef
/bplot /gsave ldef
/eplot {stroke grestore} bdef
% orientation switch
/portraitMode 0 def /landscapeMode 1 def /rotateMode 2 def
% coordinate system mappings
/dpi2point 0 def
% font control
/FontSize 0 def
/FMS {/FontSize xstore findfont [FontSize 0 0 FontSize neg 0 0]
  makefont setfont} bdef
/reencode {exch dup where {pop load} {pop StandardEncoding} ifelse
  exch dup 3 1 roll findfont dup length dict begin
  { 1 index /FID ne {def}{pop pop} ifelse } forall
  /Encoding exch def currentdict end definefont pop} bdef
/isroman {findfont /CharStrings get /Agrave known} bdef
/FMSR {3 1 roll 1 index dup isroman {reencode} {pop pop} ifelse
  exch FMS} bdef
/csm {1 dpi2point div -1 dpi2point div scale neg translate
 dup landscapeMode eq {pop -90 rotate}
  {rotateMode eq {90 rotate} if} ifelse} bdef
% line types: solid, dotted, dashed, dotdash
/SO { [] 0 setdash } bdef
/DO { [.5 dpi2point mul 4 dpi2point mul] 0 setdash } bdef
/DA { [6 dpi2point mul] 0 setdash } bdef
/DD { [.5 dpi2point mul 4 dpi2point mul 6 dpi2point mul 4
  dpi2point mul] 0 setdash } bdef
% macros for lines and objects
/L {lineto stroke} bdef
/MP {3 1 roll moveto 1 sub {rlineto} repeat} bdef
/AP {{rlineto} repeat} bdef
/PDlw -1 def
/W {/PDlw currentlinewidth def setlinewidth} def
/PP {closepath eofill} bdef
/DP {closepath stroke} bdef
/MR {4 -2 roll moveto dup  0 exch rlineto exch 0 rlineto
  neg 0 exch rlineto closepath} bdef
/FR {MR stroke} bdef
/PR {MR fill} bdef
/L1i {{currentfile picstr readhexstring pop} image} bdef
/tMatrix matrix def
/MakeOval {newpath tMatrix currentmatrix pop translate scale
0 0 1 0 360 arc tMatrix setmatrix} bdef
/FO {MakeOval stroke} bdef
/PO {MakeOval fill} bdef
/PD {currentlinewidth 2 div 0 360 arc fill
   PDlw -1 eq not {PDlw w /PDlw -1 def} if} def
/FA {newpath tMatrix currentmatrix pop translate scale
  0 0 1 5 -2 roll arc tMatrix setmatrix stroke} bdef
/PA {newpath tMatrix currentmatrix pop	translate 0 0 moveto scale
  0 0 1 5 -2 roll arc closepath tMatrix setmatrix fill} bdef
/FAn {newpath tMatrix currentmatrix pop translate scale
  0 0 1 5 -2 roll arcn tMatrix setmatrix stroke} bdef
/PAn {newpath tMatrix currentmatrix pop translate 0 0 moveto scale
  0 0 1 5 -2 roll arcn closepath tMatrix setmatrix fill} bdef
/vradius 0 def /hradius 0 def /lry 0 def
/lrx 0 def /uly 0 def /ulx 0 def /rad 0 def
/MRR {/vradius xdef /hradius xdef /lry xdef /lrx xdef /uly xdef
  /ulx xdef newpath tMatrix currentmatrix pop ulx hradius add uly
  vradius add translate hradius vradius scale 0 0 1 180 270 arc 
  tMatrix setmatrix lrx hradius sub uly vradius add translate
  hradius vradius scale 0 0 1 270 360 arc tMatrix setmatrix
  lrx hradius sub lry vradius sub translate hradius vradius scale
  0 0 1 0 90 arc tMatrix setmatrix ulx hradius add lry vradius sub
  translate hradius vradius scale 0 0 1 90 180 arc tMatrix setmatrix
  closepath} bdef
/FRR {MRR stroke } bdef
/PRR {MRR fill } bdef
/MlrRR {/lry xdef /lrx xdef /uly xdef /ulx xdef /rad lry uly sub 2 div def
  newpath tMatrix currentmatrix pop ulx rad add uly rad add translate
  rad rad scale 0 0 1 90 270 arc tMatrix setmatrix lrx rad sub lry rad
  sub translate rad rad scale 0 0 1 270 90 arc tMatrix setmatrix
  closepath} bdef
/FlrRR {MlrRR stroke } bdef
/PlrRR {MlrRR fill } bdef
/MtbRR {/lry xdef /lrx xdef /uly xdef /ulx xdef /rad lrx ulx sub 2 div def
  newpath tMatrix currentmatrix pop ulx rad add uly rad add translate
  rad rad scale 0 0 1 180 360 arc tMatrix setmatrix lrx rad sub lry rad
  sub translate rad rad scale 0 0 1 0 180 arc tMatrix setmatrix
  closepath} bdef
/FtbRR {MtbRR stroke } bdef
/PtbRR {MtbRR fill } bdef
/stri 6 array def /dtri 6 array def
/smat 6 array def /dmat 6 array def
/tmat1 6 array def /tmat2 6 array def /dif 3 array def
/asub {/ind2 exch def /ind1 exch def dup dup
  ind1 get exch ind2 get sub exch } bdef
/tri_to_matrix {
  2 0 asub 3 1 asub 4 0 asub 5 1 asub
  dup 0 get exch 1 get 7 -1 roll astore } bdef
/compute_transform {
  dmat dtri tri_to_matrix tmat1 invertmatrix 
  smat stri tri_to_matrix tmat2 concatmatrix } bdef
/ds {stri astore pop} bdef
/dt {dtri astore pop} bdef
/db {2 copy /cols xdef /rows xdef mul dup 3 mul string
  currentfile 
  3 index 0 eq {/ASCIIHexDecode filter}
  {/ASCII85Decode filter 3 index 2 eq {/RunLengthDecode filter} if }
  ifelse exch readstring pop
  dup 0 3 index getinterval /rbmap xdef
  dup 2 index dup getinterval /gbmap xdef
  1 index dup 2 mul exch getinterval /bbmap xdef pop pop}bdef
/it {gs np dtri aload pop moveto lineto lineto cp c
  cols rows 8 compute_transform 
  rbmap gbmap bbmap true 3 colorimage gr}bdef
/il {newpath moveto lineto stroke}bdef
currentdict end def
%%EndProlog

%%BeginSetup
MathWorks begin

0 cap

end
%%EndSetup

%%Page: 1 1
%%BeginPageSetup
%%PageBoundingBox:    26   186   586   606
MathWorks begin
bpage
%%EndPageSetup

%%BeginObject: obj1
bplot

/dpi2point 12 def
portraitMode 0312 7272 csm

    0     0  6720  5040 rc
85 dict begin %Colortable dictionary
/c0 { 0.000000 0.000000 0.000000 sr} bdef
/c1 { 1.000000 1.000000 1.000000 sr} bdef
/c2 { 0.900000 0.000000 0.000000 sr} bdef
/c3 { 0.000000 0.820000 0.000000 sr} bdef
/c4 { 0.000000 0.000000 0.800000 sr} bdef
/c5 { 0.910000 0.820000 0.320000 sr} bdef
/c6 { 1.000000 0.260000 0.820000 sr} bdef
/c7 { 0.000000 0.820000 0.820000 sr} bdef
c0
1 j
1 sg
   0    0 6721 5041 rf
6 w
0 4108 5208 0 0 -4108 874 4486 4 MP
PP
-5208 0 0 4108 5208 0 0 -4108 874 4486 5 MP stroke
4 w
DO
SO
6 w
0 sg
 874 4486 mt 6082 4486 L
 874  378 mt 6082  378 L
 874 4486 mt  874  378 L
6082 4486 mt 6082  378 L
 874 4486 mt 6082 4486 L
 874 4486 mt  874  378 L
 874 4486 mt  874 4459 L
 874  378 mt  874  404 L
 874 4486 mt  874 4433 L
 874  378 mt  874  430 L
%%IncludeResource: font Helvetica
/Helvetica /ISOLatin1Encoding 120 FMSR

 786 4668 mt 
(10) s
%%IncludeResource: font Helvetica
/Helvetica /ISOLatin1Encoding 80 FMSR

 919 4594 mt 
(1) s
1265 4486 mt 1265 4459 L
1265  378 mt 1265  404 L
1495 4486 mt 1495 4459 L
1495  378 mt 1495  404 L
1657 4486 mt 1657 4459 L
1657  378 mt 1657  404 L
1784 4486 mt 1784 4459 L
1784  378 mt 1784  404 L
1887 4486 mt 1887 4459 L
1887  378 mt 1887  404 L
1974 4486 mt 1974 4459 L
1974  378 mt 1974  404 L
2049 4486 mt 2049 4459 L
2049  378 mt 2049  404 L
2116 4486 mt 2116 4459 L
2116  378 mt 2116  404 L
2176 4486 mt 2176 4459 L
2176  378 mt 2176  404 L
2176 4486 mt 2176 4433 L
2176  378 mt 2176  430 L
%%IncludeResource: font Helvetica
/Helvetica /ISOLatin1Encoding 120 FMSR

2088 4668 mt 
(10) s
%%IncludeResource: font Helvetica
/Helvetica /ISOLatin1Encoding 80 FMSR

2221 4594 mt 
(2) s
2567 4486 mt 2567 4459 L
2567  378 mt 2567  404 L
2797 4486 mt 2797 4459 L
2797  378 mt 2797  404 L
2959 4486 mt 2959 4459 L
2959  378 mt 2959  404 L
3086 4486 mt 3086 4459 L
3086  378 mt 3086  404 L
3189 4486 mt 3189 4459 L
3189  378 mt 3189  404 L
3276 4486 mt 3276 4459 L
3276  378 mt 3276  404 L
3351 4486 mt 3351 4459 L
3351  378 mt 3351  404 L
3418 4486 mt 3418 4459 L
3418  378 mt 3418  404 L
3478 4486 mt 3478 4459 L
3478  378 mt 3478  404 L
3478 4486 mt 3478 4433 L
3478  378 mt 3478  430 L
%%IncludeResource: font Helvetica
/Helvetica /ISOLatin1Encoding 120 FMSR

3390 4668 mt 
(10) s
%%IncludeResource: font Helvetica
/Helvetica /ISOLatin1Encoding 80 FMSR

3523 4594 mt 
(3) s
3869 4486 mt 3869 4459 L
3869  378 mt 3869  404 L
4099 4486 mt 4099 4459 L
4099  378 mt 4099  404 L
4261 4486 mt 4261 4459 L
4261  378 mt 4261  404 L
4388 4486 mt 4388 4459 L
4388  378 mt 4388  404 L
4491 4486 mt 4491 4459 L
4491  378 mt 4491  404 L
4578 4486 mt 4578 4459 L
4578  378 mt 4578  404 L
4653 4486 mt 4653 4459 L
4653  378 mt 4653  404 L
4720 4486 mt 4720 4459 L
4720  378 mt 4720  404 L
4780 4486 mt 4780 4459 L
4780  378 mt 4780  404 L
4780 4486 mt 4780 4433 L
4780  378 mt 4780  430 L
%%IncludeResource: font Helvetica
/Helvetica /ISOLatin1Encoding 120 FMSR

4692 4668 mt 
(10) s
%%IncludeResource: font Helvetica
/Helvetica /ISOLatin1Encoding 80 FMSR

4825 4594 mt 
(4) s
5171 4486 mt 5171 4459 L
5171  378 mt 5171  404 L
5401 4486 mt 5401 4459 L
5401  378 mt 5401  404 L
5563 4486 mt 5563 4459 L
5563  378 mt 5563  404 L
5690 4486 mt 5690 4459 L
5690  378 mt 5690  404 L
5793 4486 mt 5793 4459 L
5793  378 mt 5793  404 L
5880 4486 mt 5880 4459 L
5880  378 mt 5880  404 L
5955 4486 mt 5955 4459 L
5955  378 mt 5955  404 L
6022 4486 mt 6022 4459 L
6022  378 mt 6022  404 L
6082 4486 mt 6082 4459 L
6082  378 mt 6082  404 L
6082 4486 mt 6082 4433 L
6082  378 mt 6082  430 L
%%IncludeResource: font Helvetica
/Helvetica /ISOLatin1Encoding 120 FMSR

5994 4668 mt 
(10) s
%%IncludeResource: font Helvetica
/Helvetica /ISOLatin1Encoding 80 FMSR

6127 4594 mt 
(5) s
 874 4486 mt  926 4486 L
6082 4486 mt 6029 4486 L
%%IncludeResource: font Helvetica
/Helvetica /ISOLatin1Encoding 120 FMSR

 773 4530 mt 
(0) s
 874 3972 mt  926 3972 L
6082 3972 mt 6029 3972 L
 606 4016 mt 
(0.02) s
 874 3459 mt  926 3459 L
6082 3459 mt 6029 3459 L
 606 3503 mt 
(0.04) s
 874 2945 mt  926 2945 L
6082 2945 mt 6029 2945 L
 606 2989 mt 
(0.06) s
 874 2432 mt  926 2432 L
6082 2432 mt 6029 2432 L
 606 2476 mt 
(0.08) s
 874 1918 mt  926 1918 L
6082 1918 mt 6029 1918 L
 673 1962 mt 
(0.1) s
 874 1405 mt  926 1405 L
6082 1405 mt 6029 1405 L
 606 1449 mt 
(0.12) s
 874  891 mt  926  891 L
6082  891 mt 6029  891 L
 606  935 mt 
(0.14) s
 874  378 mt  926  378 L
6082  378 mt 6029  378 L
 606  422 mt 
(0.16) s
 874 4486 mt 6082 4486 L
 874  378 mt 6082  378 L
 874 4486 mt  874  378 L
6082 4486 mt 6082  378 L
gs 874 378 5209 4109 rc
gr

/c8 { 0.000000 0.000000 1.000000 sr} bdef
c8
  36   36  874 4474 FO
gs 874 378 5209 4109 rc
gr

  36   36 2176 4479 FO
gs 874 378 5209 4109 rc
gr

  36   36 3478 4446 FO
gs 874 378 5209 4109 rc
gr

  36   36 4780 4118 FO
gs 874 378 5209 4109 rc
gr

  36   36 6082  863 FO
gs 874 378 5209 4109 rc
gr


end %%Color Dict

eplot
%%EndObject

epage
end

showpage

%%Trailer
%%EOF
