%!PS-Adobe-3.0 EPSF-3.0
%%Creator: MATLAB, The MathWorks, Inc. Version 8.2.0.701 (R2013b). Operating System: Darwin 13.1.0 Darwin Kernel Version 13.1.0: Thu Jan 16 19:40:37 PST 2014; root:xnu-2422.90.20~2/RELEASE_X86_64 x86_64.
%%Title: /home/ugrad/13/s1311367/Documents/MATLAB/kadai01.eps
%%CreationDate: 04/15/2014  13:39:52
%%DocumentNeededFonts: Helvetica
%%DocumentProcessColors: Cyan Magenta Yellow Black
%%LanguageLevel: 2
%%Pages: 1
%%BoundingBox:    26   186   586   606
%%EndComments

%%BeginProlog
% MathWorks dictionary
/MathWorks 160 dict begin
% definition operators
/bdef {bind def} bind def
/ldef {load def} bind def
/xdef {exch def} bdef
/xstore {exch store} bdef
% operator abbreviations
/c  /clip ldef
/cc /concat ldef
/cp /closepath ldef
/gr /grestore ldef
/gs /gsave ldef
/mt /moveto ldef
/np /newpath ldef
/cm /currentmatrix ldef
/sm /setmatrix ldef
/rm /rmoveto ldef
/rl /rlineto ldef
/s {show newpath} bdef
/sc {setcmykcolor} bdef
/sr /setrgbcolor ldef
/sg /setgray ldef
/w /setlinewidth ldef
/j /setlinejoin ldef
/cap /setlinecap ldef
/rc {rectclip} bdef
/rf {rectfill} bdef
% page state control
/pgsv () def
/bpage {/pgsv save def} bdef
/epage {pgsv restore} bdef
/bplot /gsave ldef
/eplot {stroke grestore} bdef
% orientation switch
/portraitMode 0 def /landscapeMode 1 def /rotateMode 2 def
% coordinate system mappings
/dpi2point 0 def
% font control
/FontSize 0 def
/FMS {/FontSize xstore findfont [FontSize 0 0 FontSize neg 0 0]
  makefont setfont} bdef
/reencode {exch dup where {pop load} {pop StandardEncoding} ifelse
  exch dup 3 1 roll findfont dup length dict begin
  { 1 index /FID ne {def}{pop pop} ifelse } forall
  /Encoding exch def currentdict end definefont pop} bdef
/isroman {findfont /CharStrings get /Agrave known} bdef
/FMSR {3 1 roll 1 index dup isroman {reencode} {pop pop} ifelse
  exch FMS} bdef
/csm {1 dpi2point div -1 dpi2point div scale neg translate
 dup landscapeMode eq {pop -90 rotate}
  {rotateMode eq {90 rotate} if} ifelse} bdef
% line types: solid, dotted, dashed, dotdash
/SO { [] 0 setdash } bdef
/DO { [.5 dpi2point mul 4 dpi2point mul] 0 setdash } bdef
/DA { [6 dpi2point mul] 0 setdash } bdef
/DD { [.5 dpi2point mul 4 dpi2point mul 6 dpi2point mul 4
  dpi2point mul] 0 setdash } bdef
% macros for lines and objects
/L {lineto stroke} bdef
/MP {3 1 roll moveto 1 sub {rlineto} repeat} bdef
/AP {{rlineto} repeat} bdef
/PDlw -1 def
/W {/PDlw currentlinewidth def setlinewidth} def
/PP {closepath eofill} bdef
/DP {closepath stroke} bdef
/MR {4 -2 roll moveto dup  0 exch rlineto exch 0 rlineto
  neg 0 exch rlineto closepath} bdef
/FR {MR stroke} bdef
/PR {MR fill} bdef
/L1i {{currentfile picstr readhexstring pop} image} bdef
/tMatrix matrix def
/MakeOval {newpath tMatrix currentmatrix pop translate scale
0 0 1 0 360 arc tMatrix setmatrix} bdef
/FO {MakeOval stroke} bdef
/PO {MakeOval fill} bdef
/PD {currentlinewidth 2 div 0 360 arc fill
   PDlw -1 eq not {PDlw w /PDlw -1 def} if} def
/FA {newpath tMatrix currentmatrix pop translate scale
  0 0 1 5 -2 roll arc tMatrix setmatrix stroke} bdef
/PA {newpath tMatrix currentmatrix pop	translate 0 0 moveto scale
  0 0 1 5 -2 roll arc closepath tMatrix setmatrix fill} bdef
/FAn {newpath tMatrix currentmatrix pop translate scale
  0 0 1 5 -2 roll arcn tMatrix setmatrix stroke} bdef
/PAn {newpath tMatrix currentmatrix pop translate 0 0 moveto scale
  0 0 1 5 -2 roll arcn closepath tMatrix setmatrix fill} bdef
/vradius 0 def /hradius 0 def /lry 0 def
/lrx 0 def /uly 0 def /ulx 0 def /rad 0 def
/MRR {/vradius xdef /hradius xdef /lry xdef /lrx xdef /uly xdef
  /ulx xdef newpath tMatrix currentmatrix pop ulx hradius add uly
  vradius add translate hradius vradius scale 0 0 1 180 270 arc 
  tMatrix setmatrix lrx hradius sub uly vradius add translate
  hradius vradius scale 0 0 1 270 360 arc tMatrix setmatrix
  lrx hradius sub lry vradius sub translate hradius vradius scale
  0 0 1 0 90 arc tMatrix setmatrix ulx hradius add lry vradius sub
  translate hradius vradius scale 0 0 1 90 180 arc tMatrix setmatrix
  closepath} bdef
/FRR {MRR stroke } bdef
/PRR {MRR fill } bdef
/MlrRR {/lry xdef /lrx xdef /uly xdef /ulx xdef /rad lry uly sub 2 div def
  newpath tMatrix currentmatrix pop ulx rad add uly rad add translate
  rad rad scale 0 0 1 90 270 arc tMatrix setmatrix lrx rad sub lry rad
  sub translate rad rad scale 0 0 1 270 90 arc tMatrix setmatrix
  closepath} bdef
/FlrRR {MlrRR stroke } bdef
/PlrRR {MlrRR fill } bdef
/MtbRR {/lry xdef /lrx xdef /uly xdef /ulx xdef /rad lrx ulx sub 2 div def
  newpath tMatrix currentmatrix pop ulx rad add uly rad add translate
  rad rad scale 0 0 1 180 360 arc tMatrix setmatrix lrx rad sub lry rad
  sub translate rad rad scale 0 0 1 0 180 arc tMatrix setmatrix
  closepath} bdef
/FtbRR {MtbRR stroke } bdef
/PtbRR {MtbRR fill } bdef
/stri 6 array def /dtri 6 array def
/smat 6 array def /dmat 6 array def
/tmat1 6 array def /tmat2 6 array def /dif 3 array def
/asub {/ind2 exch def /ind1 exch def dup dup
  ind1 get exch ind2 get sub exch } bdef
/tri_to_matrix {
  2 0 asub 3 1 asub 4 0 asub 5 1 asub
  dup 0 get exch 1 get 7 -1 roll astore } bdef
/compute_transform {
  dmat dtri tri_to_matrix tmat1 invertmatrix 
  smat stri tri_to_matrix tmat2 concatmatrix } bdef
/ds {stri astore pop} bdef
/dt {dtri astore pop} bdef
/db {2 copy /cols xdef /rows xdef mul dup 3 mul string
  currentfile 
  3 index 0 eq {/ASCIIHexDecode filter}
  {/ASCII85Decode filter 3 index 2 eq {/RunLengthDecode filter} if }
  ifelse exch readstring pop
  dup 0 3 index getinterval /rbmap xdef
  dup 2 index dup getinterval /gbmap xdef
  1 index dup 2 mul exch getinterval /bbmap xdef pop pop}bdef
/it {gs np dtri aload pop moveto lineto lineto cp c
  cols rows 8 compute_transform 
  rbmap gbmap bbmap true 3 colorimage gr}bdef
/il {newpath moveto lineto stroke}bdef
currentdict end def
%%EndProlog

%%BeginSetup
MathWorks begin

0 cap

end
%%EndSetup

%%Page: 1 1
%%BeginPageSetup
%%PageBoundingBox:    26   186   586   606
MathWorks begin
bpage
%%EndPageSetup

%%BeginObject: obj1
bplot

/dpi2point 12 def
portraitMode 0312 7272 csm

    0     0  6720  5040 rc
85 dict begin %Colortable dictionary
/c0 { 0.000000 0.000000 0.000000 sr} bdef
/c1 { 1.000000 1.000000 1.000000 sr} bdef
/c2 { 0.900000 0.000000 0.000000 sr} bdef
/c3 { 0.000000 0.820000 0.000000 sr} bdef
/c4 { 0.000000 0.000000 0.800000 sr} bdef
/c5 { 0.910000 0.820000 0.320000 sr} bdef
/c6 { 1.000000 0.260000 0.820000 sr} bdef
/c7 { 0.000000 0.820000 0.820000 sr} bdef
c0
1 j
1 sg
   0    0 6721 5041 rf
6 w
0 4108 5208 0 0 -4108 874 4486 4 MP
PP
-5208 0 0 4108 5208 0 0 -4108 874 4486 5 MP stroke
4 w
DO
SO
6 w
0 sg
 874 4486 mt 6082 4486 L
 874  378 mt 6082  378 L
 874 4486 mt  874  378 L
6082 4486 mt 6082  378 L
 874 4486 mt 6082 4486 L
 874 4486 mt  874  378 L
 874 4486 mt  874 4433 L
 874  378 mt  874  430 L
%%IncludeResource: font Helvetica
/Helvetica /ISOLatin1Encoding 120 FMSR

 841 4631 mt 
(0) s
1394 4486 mt 1394 4433 L
1394  378 mt 1394  430 L
1311 4631 mt 
(0.1) s
1915 4486 mt 1915 4433 L
1915  378 mt 1915  430 L
1832 4631 mt 
(0.2) s
2436 4486 mt 2436 4433 L
2436  378 mt 2436  430 L
2353 4631 mt 
(0.3) s
2957 4486 mt 2957 4433 L
2957  378 mt 2957  430 L
2874 4631 mt 
(0.4) s
3478 4486 mt 3478 4433 L
3478  378 mt 3478  430 L
3395 4631 mt 
(0.5) s
3998 4486 mt 3998 4433 L
3998  378 mt 3998  430 L
3915 4631 mt 
(0.6) s
4519 4486 mt 4519 4433 L
4519  378 mt 4519  430 L
4436 4631 mt 
(0.7) s
5040 4486 mt 5040 4433 L
5040  378 mt 5040  430 L
4957 4631 mt 
(0.8) s
5561 4486 mt 5561 4433 L
5561  378 mt 5561  430 L
5478 4631 mt 
(0.9) s
6082 4486 mt 6082 4433 L
6082  378 mt 6082  430 L
6049 4631 mt 
(1) s
 874 4486 mt  926 4486 L
6082 4486 mt 6029 4486 L
 773 4530 mt 
(0) s
 874 4075 mt  926 4075 L
6082 4075 mt 6029 4075 L
 673 4119 mt 
(0.1) s
 874 3664 mt  926 3664 L
6082 3664 mt 6029 3664 L
 673 3708 mt 
(0.2) s
 874 3253 mt  926 3253 L
6082 3253 mt 6029 3253 L
 673 3297 mt 
(0.3) s
 874 2842 mt  926 2842 L
6082 2842 mt 6029 2842 L
 673 2886 mt 
(0.4) s
 874 2432 mt  926 2432 L
6082 2432 mt 6029 2432 L
 673 2476 mt 
(0.5) s
 874 2021 mt  926 2021 L
6082 2021 mt 6029 2021 L
 673 2065 mt 
(0.6) s
 874 1610 mt  926 1610 L
6082 1610 mt 6029 1610 L
 673 1654 mt 
(0.7) s
 874 1199 mt  926 1199 L
6082 1199 mt 6029 1199 L
 673 1243 mt 
(0.8) s
 874  788 mt  926  788 L
6082  788 mt 6029  788 L
 673  832 mt 
(0.9) s
 874  378 mt  926  378 L
6082  378 mt 6029  378 L
 773  422 mt 
(1) s
 874 4486 mt 6082 4486 L
 874  378 mt 6082  378 L
 874 4486 mt  874  378 L
6082 4486 mt 6082  378 L
gs 874 378 5209 4109 rc
gr

/c8 { 1.000000 0.000000 0.000000 sr} bdef
c8
5081  765 mt 5153  765 L
5117  729 mt 5117  801 L
1499  733 mt 1571  733 L
1535  697 mt 1535  769 L
4131 4085 mt 4203 4085 L
4167 4049 mt 4167 4121 L
2288 2239 mt 2360 2239 L
2324 2203 mt 2324 2275 L
5824  522 mt 5896  522 L
5860  486 mt 5860  558 L
1658  498 mt 1730  498 L
1694  462 mt 1694  534 L
5822 2492 mt 5894 2492 L
5858 2456 mt 5858 2528 L
5005 3903 mt 5077 3903 L
5041 3867 mt 5041 3939 L
3034  724 mt 3106  724 L
3070  688 mt 3070  760 L
4963  544 mt 5035  544 L
4999  508 mt 4999  580 L
4253 4339 mt 4325 4339 L
4289 4303 mt 4289 4375 L
5260  649 mt 5332  649 L
5296  613 mt 5296  685 L
4372 1373 mt 4444 1373 L
4408 1337 mt 4408 1409 L
4708 2874 mt 4780 2874 L
4744 2838 mt 4744 2910 L
4251 3782 mt 4323 3782 L
4287 3746 mt 4287 3818 L
4515 4355 mt 4587 4355 L
4551 4319 mt 4551 4391 L
2280 4296 mt 2352 4296 L
2316 4260 mt 2316 4332 L
1343 1103 mt 1415 1103 L
1379 1067 mt 1379 1139 L
4456 3183 mt 4528 3183 L
4492 3147 mt 4492 3219 L
5786 4344 mt 5858 4344 L
5822 4308 mt 5822 4380 L
3122 2918 mt 3194 2918 L
3158 2882 mt 3158 2954 L
4824 1219 mt 4896 1219 L
4860 1183 mt 4860 1255 L
1811 2474 mt 1883 2474 L
1847 2438 mt 1847 2510 L
3158 1830 mt 3230 1830 L
3194 1794 mt 3194 1866 L
4532 1385 mt 4604 1385 L
4568 1349 mt 4568 1421 L
2275 1693 mt 2347 1693 L
2311 1657 mt 2311 1729 L
4249 3817 mt 4321 3817 L
4285 3781 mt 4285 3853 L
1457 2438 mt 1529 2438 L
1493 2402 mt 1493 2474 L
5836 3087 mt 5908 3087 L
5872 3051 mt 5872 3123 L
3886 3566 mt 3958 3566 L
3922 3530 mt 3922 3602 L
4750 3438 mt 4822 3438 L
4786 3402 mt 4786 3474 L
3473 1614 mt 3545 1614 L
3509 1578 mt 3509 1650 L
5477  545 mt 5549  545 L
5513  509 mt 5513  581 L
3687 3916 mt 3759 3916 L
3723 3880 mt 3723 3952 L
1615 3428 mt 1687 3428 L
1651 3392 mt 1651 3464 L
5216 3441 mt 5288 3441 L
5252 3405 mt 5252 3477 L
5078 3485 mt 5150 3485 L
5114 3449 mt 5114 3521 L
5677 3048 mt 5749 3048 L
5713 3012 mt 5713 3084 L
1861 3454 mt 1933 3454 L
1897 3418 mt 1897 3490 L
4046 2541 mt 4118 2541 L
4082 2505 mt 4082 2577 L
2669 1072 mt 2741 1072 L
2705 1036 mt 2705 1108 L
3886 2227 mt 3958 2227 L
3922 2191 mt 3922 2263 L
5614 3311 mt 5686 3311 L
5650 3275 mt 5650 3347 L
4781 1389 mt 4853 1389 L
4817 1353 mt 4817 1425 L
2819 2153 mt 2891 2153 L
2855 2117 mt 2855 2189 L
1233 4264 mt 1305 4264 L
1269 4228 mt 1269 4300 L
3602 1285 mt 3674 1285 L
3638 1249 mt 3638 1321 L
5702 3952 mt 5774 3952 L
5738 3916 mt 5738 3988 L
3800 2557 mt 3872 2557 L
3836 2521 mt 3836 2593 L
 899 3101 mt  971 3101 L
 935 3065 mt  935 3137 L
1682 1223 mt 1754 1223 L
1718 1187 mt 1718 1259 L
2458 2314 mt 2530 2314 L
2494 2278 mt 2494 2350 L
1700 2013 mt 1772 2013 L
1736 1977 mt 1736 2049 L
2207 1799 mt 2279 1799 L
2243 1763 mt 2243 1835 L
4427 1412 mt 4499 1412 L
4463 1376 mt 4463 1448 L
3184 4141 mt 3256 4141 L
3220 4105 mt 3220 4177 L
2030  734 mt 2102  734 L
2066  698 mt 2066  770 L
1631 1093 mt 1703 1093 L
1667 1057 mt 1667 1129 L
3641  393 mt 3713  393 L
3677  357 mt 3677  429 L
1245 2667 mt 1317 2667 L
1281 2631 mt 1281 2703 L
1393  534 mt 1465  534 L
1429  498 mt 1429  570 L
 862 1302 mt  934 1302 L
 898 1266 mt  898 1338 L
5094  917 mt 5166  917 L
5130  881 mt 5130  953 L
1277 2843 mt 1349 2843 L
1313 2807 mt 1313 2879 L
2191 1199 mt 2263 1199 L
2227 1163 mt 2227 1235 L
3084  745 mt 3156  745 L
3120  709 mt 3120  781 L
1785 3402 mt 1857 3402 L
1821 3366 mt 1821 3438 L
1595 3927 mt 1667 3927 L
1631 3891 mt 1631 3963 L
5365 2104 mt 5437 2104 L
5401 2068 mt 5401 2140 L
3701 3890 mt 3773 3890 L
3737 3854 mt 3737 3926 L
5280 1930 mt 5352 1930 L
5316 1894 mt 5316 1966 L
2665 2377 mt 2737 2377 L
2701 2341 mt 2701 2413 L
2930 4173 mt 3002 4173 L
2966 4137 mt 2966 4209 L
2087 3979 mt 2159 3979 L
2123 3943 mt 2123 4015 L
1795 3500 mt 1867 3500 L
1831 3464 mt 1831 3536 L
3011 4282 mt 3083 4282 L
3047 4246 mt 3047 4318 L
5539  604 mt 5611  604 L
5575  568 mt 5575  640 L
3394 2476 mt 3466 2476 L
3430 2440 mt 3430 2512 L
2596  788 mt 2668  788 L
2632  752 mt 2632  824 L
2761 4029 mt 2833 4029 L
2797 3993 mt 2797 4065 L
4901 2884 mt 4973 2884 L
4937 2848 mt 4937 2920 L
2096 2826 mt 2168 2826 L
2132 2790 mt 2132 2862 L
1340 3943 mt 1412 3943 L
1376 3907 mt 1376 3979 L
5744  558 mt 5816  558 L
5780  522 mt 5780  594 L
3833 4240 mt 3905 4240 L
3869 4204 mt 3869 4276 L
2060 3035 mt 2132 3035 L
2096 2999 mt 2096 3071 L
5114 4422 mt 5186 4422 L
5150 4386 mt 5150 4458 L
1062 3791 mt 1134 3791 L
1098 3755 mt 1098 3827 L
4218 1480 mt 4290 1480 L
4254 1444 mt 4254 1516 L
4211 2633 mt 4283 2633 L
4247 2597 mt 4247 2669 L
3686 3268 mt 3758 3268 L
3722 3232 mt 3722 3304 L
4716 3709 mt 4788 3709 L
4752 3673 mt 4752 3745 L
4414 3732 mt 4486 3732 L
4450 3696 mt 4450 3768 L
2757 1915 mt 2829 1915 L
2793 1879 mt 2793 1951 L
4901 4152 mt 4973 4152 L
4937 4116 mt 4937 4188 L
5678 1299 mt 5750 1299 L
5714 1263 mt 5714 1335 L
3373 2695 mt 3445 2695 L
3409 2659 mt 3409 2731 L
3164 3227 mt 3236 3227 L
3200 3191 mt 3200 3263 L
3486 2387 mt 3558 2387 L
3522 2351 mt 3522 2423 L
5096 1220 mt 5168 1220 L
5132 1184 mt 5132 1256 L
gs 874 378 5209 4109 rc
gr


end %%Color Dict

eplot
%%EndObject

epage
end

showpage

%%Trailer
%%EOF
